My favourite R packages
…
---
# Tidyverse

`tibble` is "a modern reimagining of the data.frame"

```r
iris <- iris %>% as_tibble()
iris %>% print(n=5)
```

```
## # A tibble: 150 x 5
##   Sepal.Length Sepal.Width Petal.Length Petal.Width Species
##          <dbl>       <dbl>        <dbl>       <dbl> <fct>  
## 1          5.1         3.5          1.4         0.2 setosa 
## 2          4.9         3            1.4         0.2 setosa 
## 3          4.7         3.2          1.3         0.2 setosa 
## 4          4.6         3.1          1.5         0.2 setosa 
## 5          5           3.6          1.4         0.2 setosa 
## # … with 145 more rows
```
…
---
# data.table

```r
iris_dt <- as.data.table(iris)
iris <- iris %>%
  mutate(Sepal.Width = cut_interval(Sepal.Width, n = 3))
iris_dt[, Sepal.Width := cut_interval(Sepal.Width, n = 3)]
print(iris, n = 3)
```

```
## # A tibble: 150 x 5
##   Sepal.Length Sepal.Width Petal.Length Petal.Width Species
##          <dbl> <fct>              <dbl>       <dbl> <fct>  
## 1          5.1 (2.8,3.6]            1.4         0.2 setosa 
## 2          4.9 (2.8,3.6]            1.4         0.2 setosa 
## 3          4.7 (2.8,3.6]            1.3         0.2 setosa 
## # … with 147 more rows
```
…
